Analysis of COVID-19 Serial Interval
…
Figure 4.3: (ref:distributionSubset)

covidLocal <- covid19 %>% filter(transmit_mode == 'Local')
covidImported <- covid19 %>% filter(transmit_mode == "Imported")
covidLocal %>% group_by(serial_int) %>% tally()

## # A tibble: 23 x 2
##    serial_int     n
##         <dbl> <int>
##  1         -9     1
##  2         -6     1
##  3         -5     3
##  4         -4     1
##  5         -3     4
##  6         -1     8
##  7          0     8
##  8          1    11
##  9          2    19
## 10          3     9
## #  with 13 more rows

covid19 %>% group_by(serial_int) %>% tally()

## # A tibble: 29 x 2
##    serial_int     n
##         <dbl> <int>
##  1        -11     1
##  2        -10     2
##  3         -9     1
##  4         -8     1
##  5         -6     2
##  6         -5     5
##  7         -4     8
##  8         -3     7
##  9         -2     7
## 10         -1    25
## #  with 19 more rows

covidLocal %>% group_by(index_id) %>% select(index_id) %>% tally() %>% filter(n > 1) 

## # A tibble: 28 x 2
##    index_id     n
##       <dbl> <int>
##  1       23     2
##  2       60     2
##  3       63     3
##  4       76     3
##  5      154     3
##  6      784     3
##  7     1062     2
##  8     1067     2
##  9     1205     2
## 10     1284     2
## #  with 18 more rows
…
